%YAML 1.1
%TAG !u! tag:unity3d.com,2011:
--- !u!114 &11400000
MonoBehaviour:
  m_ObjectHideFlags: 0
  m_CorrespondingSourceObject: {fileID: 0}
  m_PrefabInstance: {fileID: 0}
  m_PrefabAsset: {fileID: 0}
  m_GameObject: {fileID: 0}
  m_Enabled: 1
  m_EditorHideFlags: 0
  m_Script: {fileID: 11500000, guid: 67d1a004503e2f04093486e57bbe30b3, type: 3}
  m_Name: EnemyViper
  m_EditorClassIdentifier: 
  bite: 7
  lifePoints: 50
  attackDamage: 20
  moveSpeed: 1
  attackSpeed: 3
  time: 0
