%YAML 1.1
%TAG !u! tag:unity3d.com,2011:
--- !u!114 &11400000
MonoBehaviour:
  m_ObjectHideFlags: 0
  m_CorrespondingSourceObject: {fileID: 0}
  m_PrefabInstance: {fileID: 0}
  m_PrefabAsset: {fileID: 0}
  m_GameObject: {fileID: 0}
  m_Enabled: 1
  m_EditorHideFlags: 0
  m_Script: {fileID: 11500000, guid: a2f55d33c9f668241a2abe85d841fd85, type: 3}
  m_Name: Electronic
  m_EditorClassIdentifier: 
  keepTime: 7
  name: Electronic
  spriteMaterial: {fileID: 21300000, guid: a28f81581ab8e2d4d979f95a42522099, type: 3}
