%YAML 1.1
%TAG !u! tag:unity3d.com,2011:
--- !u!74 &7400000
AnimationClip:
  m_ObjectHideFlags: 0
  m_CorrespondingSourceObject: {fileID: 0}
  m_PrefabInstance: {fileID: 0}
  m_PrefabAsset: {fileID: 0}
  m_Name: Human
  serializedVersion: 6
  m_Legacy: 0
  m_Compressed: 0
  m_UseHighQualityCurve: 1
  m_RotationCurves: []
  m_CompressedRotationCurves: []
  m_EulerCurves: []
  m_PositionCurves: []
  m_ScaleCurves: []
  m_FloatCurves: []
  m_PPtrCurves:
  - curve:
    - time: 0
      value: {fileID: -5803165839859792213, guid: fd4e12a845c196f44b07d29a3dbf2a98,
        type: 3}
    - time: 0.05
      value: {fileID: -5672486181178123299, guid: fd4e12a845c196f44b07d29a3dbf2a98,
        type: 3}
    - time: 0.1
      value: {fileID: -5294593968490298643, guid: fd4e12a845c196f44b07d29a3dbf2a98,
        type: 3}
    - time: 0.15
      value: {fileID: -5318561418024643046, guid: fd4e12a845c196f44b07d29a3dbf2a98,
        type: 3}
    - time: 0.16666667
      value: {fileID: -8006889386883683028, guid: fd4e12a845c196f44b07d29a3dbf2a98,
        type: 3}
    - time: 0.18333334
      value: {fileID: 5720716035221293033, guid: fd4e12a845c196f44b07d29a3dbf2a98,
        type: 3}
    - time: 0.2
      value: {fileID: -270782883933578659, guid: fd4e12a845c196f44b07d29a3dbf2a98,
        type: 3}
    - time: 0.21666667
      value: {fileID: 132762820930820203, guid: fd4e12a845c196f44b07d29a3dbf2a98,
        type: 3}
    - time: 0.23333333
      value: {fileID: 5357638593218570222, guid: fd4e12a845c196f44b07d29a3dbf2a98,
        type: 3}
    attribute: m_Sprite
    path: 
    classID: 212
    script: {fileID: 0}
  m_SampleRate: 60
  m_WrapMode: 0
  m_Bounds:
    m_Center: {x: 0, y: 0, z: 0}
    m_Extent: {x: 0, y: 0, z: 0}
  m_ClipBindingConstant:
    genericBindings:
    - serializedVersion: 2
      path: 0
      attribute: 0
      script: {fileID: 0}
      typeID: 212
      customType: 23
      isPPtrCurve: 1
    pptrCurveMapping:
    - {fileID: -5803165839859792213, guid: fd4e12a845c196f44b07d29a3dbf2a98, type: 3}
    - {fileID: -5672486181178123299, guid: fd4e12a845c196f44b07d29a3dbf2a98, type: 3}
    - {fileID: -5294593968490298643, guid: fd4e12a845c196f44b07d29a3dbf2a98, type: 3}
    - {fileID: -5318561418024643046, guid: fd4e12a845c196f44b07d29a3dbf2a98, type: 3}
    - {fileID: -8006889386883683028, guid: fd4e12a845c196f44b07d29a3dbf2a98, type: 3}
    - {fileID: 5720716035221293033, guid: fd4e12a845c196f44b07d29a3dbf2a98, type: 3}
    - {fileID: -270782883933578659, guid: fd4e12a845c196f44b07d29a3dbf2a98, type: 3}
    - {fileID: 132762820930820203, guid: fd4e12a845c196f44b07d29a3dbf2a98, type: 3}
    - {fileID: 5357638593218570222, guid: fd4e12a845c196f44b07d29a3dbf2a98, type: 3}
  m_AnimationClipSettings:
    serializedVersion: 2
    m_AdditiveReferencePoseClip: {fileID: 0}
    m_AdditiveReferencePoseTime: 0
    m_StartTime: 0
    m_StopTime: 0.25
    m_OrientationOffsetY: 0
    m_Level: 0
    m_CycleOffset: 0
    m_HasAdditiveReferencePose: 0
    m_LoopTime: 1
    m_LoopBlend: 0
    m_LoopBlendOrientation: 0
    m_LoopBlendPositionY: 0
    m_LoopBlendPositionXZ: 0
    m_KeepOriginalOrientation: 0
    m_KeepOriginalPositionY: 1
    m_KeepOriginalPositionXZ: 0
    m_HeightFromFeet: 0
    m_Mirror: 0
  m_EditorCurves: []
  m_EulerEditorCurves: []
  m_HasGenericRootTransform: 0
  m_HasMotionFloatCurves: 0
  m_Events: []
